id;ma_so;ten_chi_tieu;cap;so_dau_ky;so_cuoi_ky
1;86323;Refined AGP;689;93107;32697
2;48311;Course Fords;41596;14531;87778
3;32280;quantify Integration value-added;98535;33304;40801
4;70922;Bedfordshire cross-platform Stravenue;29354;90386;96905
5;79078;Dollar) Hawaii Profound;54539;25313;73757
6;62661;Personal Account;6221;75156;44893
7;55855;Lempira;43945;66141;79739
8;34721;radical;85384;67743;46347
9;62259;Hawaii asymmetric;6446;94955;61541
10;77183;Dynamic Berkshire Well;56050;84965;33805
