id;so_luong;gia;ngay_su_dung;dich_vu_id;phong_duoc_dat_id
1;38482;60724;2021-05-16T14:40:45;1;1
2;71286;96147;2021-05-16T14:05:09;2;2
3;26863;80902;2021-05-16T21:26:40;3;3
4;34968;34601;2021-05-17T01:40:03;4;4
5;19481;95400;2021-05-16T14:28:10;5;5
6;75312;45253;2021-05-17T01:31:02;6;6
7;99711;22387;2021-05-16T10:56:40;7;7
8;54332;13406;2021-05-16T10:43:21;8;8
9;77430;18363;2021-05-16T20:32:47;9;9
10;24741;30196;2021-05-16T23:03:52;10;10
