id;ngay_tao;ngay_phai_tra;so_tien;ghi_chu;khach_hang_id;ma_ke_toan_id
1;2021-05-16T02:33:10;2021-05-16T03:04:28;46795;Fish CSS definition;1;1
2;2021-05-16T00:44:08;2021-05-16T01:57:09;53036;incremental Won;2;2
3;2021-05-16T07:13:21;2021-05-15T14:03:40;47592;deposit Missouri;3;3
4;2021-05-15T15:43:13;2021-05-16T01:27:32;60700;visionary backing maroon;4;4
5;2021-05-16T03:37:37;2021-05-15T10:56:02;71342;Belarus Consultant;5;5
6;2021-05-16T07:44:44;2021-05-16T04:38:32;88931;Sum Fresh;6;6
7;2021-05-15T17:08:37;2021-05-16T06:46:12;36264;tan Oregon Buckinghamshire;7;7
8;2021-05-15T15:17:39;2021-05-16T01:53:41;36503;Account RAM;8;8
9;2021-05-16T04:01:37;2021-05-15T11:03:13;14112;Wooden quantifying Towels;9;9
10;2021-05-15T19:00:07;2021-05-16T06:46:13;996;Communications;10;10
