id;so_hieu;ten
1;16886;connecting
2;85243;Unbranded Programmable EXE
3;11702;Small Market
4;45768;efficient Clothing
5;99670;Zloty
6;23671;Refined Car Bedfordshire
7;37995;Soap
8;3734;Buckinghamshire
9;2333;Massachusetts Account Representative
10;63992;dynamic Team-oriented monitor
