{
  "fields": [
    {
      "fieldName": "ten",
      "fieldType": "String",
      "fieldValidateRules": ["required"]
    },
    {
      "fieldName": "diaChi",
      "fieldType": "String"
    },
    {
      "fieldName": "email",
      "fieldType": "String"
    },
    {
      "fieldName": "sdt",
      "fieldType": "String"
    }
  ],
  "relationships": [],
  "service": "serviceImpl",
  "dto": "mapstruct",
  "jpaMetamodelFiltering": true,
  "readOnly": false,
  "pagination": "pagination",
  "name": "KhachHang",
  "changelogDate": "20210516100124"
}
