{
  "fields": [
    {
      "fieldName": "ten",
      "fieldType": "String",
      "fieldValidateRules": ["required", "unique"]
    },
    {
      "fieldName": "moTa",
      "fieldType": "String"
    }
  ],
  "relationships": [],
  "service": "serviceImpl",
  "dto": "mapstruct",
  "jpaMetamodelFiltering": true,
  "readOnly": false,
  "pagination": "pagination",
  "name": "KhoanMucChiPhi",
  "changelogDate": "20210516100358"
}
